#
# 2048 bit OpenVPN static key
#
-----BEGIN OpenVPN Static key V1-----
6747ad0d9a4165b2e1ff8dddb51c29bf
5f59edf4c9e3c423a0dc6f40c1b2c954
9c81fbc3c81875e0c3390df3b27b9606
dbc107cd44bf85d45b4da3008c361e7a
451790632edb6c4418c88a42e82e0f94
7af7d25bad52ee5fab3c1adba40dcc66
c48e3bc1f7938fd060383dd4e184c261
7b08552c4b6102b7490db104e2a89ee6
ca9cbca38640822c2e5acc285f2f8238
a7efc7ffd4ab6297b9c803e0e9adbb60
1699c7cd82eaf233bc921d35009b9fda
f5d076f8e88004c60f518e0b22388c3d
79745d8c365d835f5ec1b65dd44b73c9
41edbeb460f2b20986198b708b9a7399
5a0a68e51a87240411b78624afdce9a8
4958c9596eecab5e817b072053a8f3d0
-----END OpenVPN Static key V1-----
