#
# 2048 bit OpenVPN static key
#
-----BEGIN OpenVPN Static key V1-----
a35d19715da62753ed5e3bdea8612d52
0aab6b7a954472890cf68b50a8da0836
4e04df6c2c3c9afdb04719a51969e277
7513cc2b9a8ce9bff16052a03d1eb7e6
ee5cd5872e7a02f1ed6306b32f23b3eb
d7f67a40319d1f22b92fa576415f1cff
32d788ea83d5d55de7c244ddb5c8a1ff
638e9043c3a1c4f6894b079151945b40
4e7a08c5ac84bf5f3ee367b0649dd66c
3af6087d85e29f3745219f715a8b3056
6b6c4594b9d75720fc0af4269f9050b3
6842a265dc84569d252a5069748a189b
0fd04d056fd4d5a8a6dd3066c9bd420d
5a9af28372a70ce345f264695b8e01bb
ba2e7fcbb5c33706a90cdc545b745ec2
d48cc6e6f631f6b7505e2f0083d7beff
-----END OpenVPN Static key V1-----
